161;4331
170;215
170;211
172;208
172;205
173;203
174;201
174;200
175;198
176;198
177;197
177;196
178;196
179;196
179;195
180;196
181;196
181;196
182;197
183;197
184;197
184;198
185;200
186;201
186;202
187;203
188;205
189;207
189;210
208;4476
208;4402
209;4276
211;1152
211;1135
212;1128
213;1127
214;1130
214;1138
215;1156
216;1285
217;1290
218;1302
218;1320
219;1329
220;1343
221;1357
221;1378
222;1391
223;1406
223;1403
224;1386
225;1367
226;1356
228;803
228;794
229;787
230;775
230;767
231;758
232;752
243;2695
243;2658
244;2617
245;2566
245;2530
246;2491
247;2493
248;2494
248;2470
249;2460
250;2456
251;2443
251;2420
252;2413
253;2408
253;2395
254;2405
255;2378
256;2375
256;2372
257;2367
258;2298
259;2351
259;2275
260;2343
261;2336
261;2336
262;2323
263;2344
264;2333
264;2335
265;2315
266;2328
266;2324
267;2312
268;2311
269;2317
269;2313
270;2317
271;2333
271;2315
272;2328
273;2315
274;2316
275;2324
275;2296
276;2073
277;1957
278;1957
280;656
281;645
281;640
282;637
283;633
283;634
284;634
285;636
286;640
286;645
287;653
288;673
311;2819
311;2796
312;2842
313;2864
314;2923
314;2945
315;3000
316;3037
317;3082
317;3524
318;3488
319;3476
320;2604
321;2553
334;3063
335;3011
335;2966
336;2912
337;2886
338;2847
338;2840
339;2813
340;2803
340;2798
341;2791
342;2760
343;2767
343;2734
344;2725
345;2731
346;2716
347;2713
347;2698
348;2694
349;2694
350;2691
350;2677
351;2672
352;2659
353;2670
353;2639
354;2606
355;1073
356;1035
357;1026
358;1023
359;1012
359;1022
0;1017
1;1030
2;1033
2;1038
3;1051
4;1035
4;1051
5;1055
6;1061
7;1059
7;1064
8;1063
9;1064
10;1069
10;1082
11;1083
12;1082
13;1077
14;1088
14;1076
15;1097
16;1102
28;1365
28;1385
29;1373
30;1380
31;1376
31;1347
33;1266
34;1254
35;1244
36;1243
36;1258
38;1510
40;3475
41;3494
42;3553
42;3572
43;3636
44;3669
45;1595
46;1577
47;1564
47;1570
48;1563
49;1546
50;1507
62;4061
62;3965
64;3817
65;3733
75;3090
76;3102
77;3105
78;3084
79;3074
79;3059
80;3045
82;3491
83;3481
84;3443
84;3443
85;3451
86;3442
87;3435
88;3413
88;3415
89;3444
90;3478
91;3555
91;3715
92;3970
98;983
102;3640
102;3662
103;3658
104;3679
105;3783
118;4147
119;4184
120;4182
121;4199
122;4207
123;2398
123;2344
126;2279
127;2240
127;2306
128;2341
129;2343
130;2339
131;2358
133;4959
134;5034
134;4653
138;657
139;652
140;644
140;634
141;628
160;4408
160;4377
161;4379
170;216
171;210
172;207
173;205
173;202
174;200
175;199
176;198
177;197
177;196
178;195
179;195
179;196
181;196
181;196
182;197
183;197
184;198
185;199
186;201
187;202
187;204
188;206
189;209
189;212
207;4506
208;4390
209;4279
211;1152
212;1134
213;1131
213;1132
214;1135
215;1156
216;1282
217;1295
218;1309
219;1328
220;1345
221;1364
221;1379
222;1402
223;1411
224;1385
225;1365
226;1361
227;818
228;799
229;787
230;778
230;767
231;758
232;751
242;2724
243;2666
244;2617
245;2569
246;2527
247;2500
247;2471
248;2465
249;2460
250;2443
251;2436
252;2431
253;2405
254;2396
254;2383
255;2393
256;2377
257;2373
258;2299
259;2357
259;2282
260;2349
261;2354
262;2322
263;2338
264;2338
264;2333
265;2319
266;2313
267;2316
268;2311
269;2329
269;2306
270;2317
271;2327
272;2322
273;2314
274;2317
275;2329
276;2194
277;1959
278;1958
280;653
281;642
282;637
283;634
283;633
284;633
285;637
286;641
287;648
288;667
311;2801
312;2815
313;2864
313;2900
314;2938
315;3008
316;3051
317;3595
318;3515
318;3484
319;2646
320;2597
334;3061
335;3014
335;2962
336;2880
337;2847
338;2839
339;2811
340;2802
341;2799
342;2787
342;2773
343;2766
