349;789
351;797
354;835
356;890
358;851
1;875
7;2546
9;2554
11;2565
14;2608
28;1484
30;1548
37;3159
40;1735
42;1623
45;1603
47;1587
49;1574
52;1543
68;1706
70;1680
73;1679
75;1659
77;1669
80;1629
82;1769
84;1712
87;1774
89;3111
91;3088
93;3254
105;3389
119;3775
122;3883
124;3988
127;3997
129;4142
131;4283
133;4426
136;4493
138;4862
141;4476
143;4109
155;4864
157;4286
164;664
166;658
168;669
176;4257
178;4276
181;4249
183;4286
185;4302
188;4300
190;1755
209;4998
211;4777
214;4442
216;4446
218;4217
221;4006
223;3856
231;286
246;3013
249;2846
251;2806
253;2777
256;2728
258;2716
260;2703
263;2687
265;2684
267;2655
270;2665
272;2668
275;2294
277;2301
279;2314
282;2349
284;2375
305;3028
307;3050
310;3140
312;3731
314;2747
319;2890
321;3215
324;2952
334;961
337;869
339;825
341;816
344;807
346;794
348;791
351;786
353;828
355;863
358;847
0;861
6;2546
8;2551
11;2581
13;2604
15;2664
27;1453
30;1553
36;3143
39;1744
42;1652
44;1598
46;1594
49;1572
51;1541
67;1770
70;1668
72;1681
74;1667
77;1667
79;1630
81;1765
84;1698
86;1752
88;3104
90;3063
93;3166
105;3339
119;3697
121;3833
124;3954
126;3963
128;4099
130;4219
133;4391
135;4442
137;4805
140;4577
142;4255
154;4927
156;4160
163;669
165;658
167;664
171;1717
175;4255
177;4244
180;4279
182;4262
185;4272
187;4305
190;1785
208;4979
213;4538
215;4496
218;4293
220;4076
222;3874
230;295
248;2850
250;2831
253;2794
255;2736
257;2704
260;2709
262;2695
264;2672
267;2670
269;2679
271;2666
274;2294
276;2302
279;2312
281;2342
283;2359
286;2397
306;3018
309;3115
311;3240
318;3328
320;3281
323;3058
333;951
336;885
338;839
341;815
343;807
345;800
348;791
350;783
352;818
355;849
357;847
359;850
5;2550
8;2551
10;2563
12;2605
15;2621
29;1503
36;3099
38;3197
41;1683
43;1599
45;1592
48;1577
50;1547
66;1791
69;1684
71;1690
73;1683
76;1670
78;1657
80;1660
83;1685
90;3090
92;3113
94;3485
118;3673
120;3809
123;3941
125;3973
128;4038
130;4191
132;4321
134;4496
137;4605
139;4615
141;4354
156;4515
162;680
164;660
167;660
169;681
177;4276
179;4272
181;4267
184;4279
186;4312
188;4333
207;4931
212;4659
215;4377
217;4356
219;4112
222;3968
229;303
242;304
247;2883
250;2839
252;2796
254;2754
257;2722
259;2660
261;2692
264;2695
266;2680
268;2682
271;2681
273;2308
276;2295
278;2309
280;2332
283;2355
285;2376
306;2992
308;3095
310;3191
313;3716
315;2741
317;3157
320;3309
322;3125
335;915
338;856
340;818
342;810
345;806
347;791
349;781
352;808
354;837
356;875
359;843
1;869
2;2577
5;2539
7;2545
9;2567
11;2576
14;2610
28;1470
31;1547
37;3164
40;1705
42;1620
45;1577
47;1578
49;1557
52;1510
68;1700
70;1702
73;1676
75;1670
77;1654
80;1630
82;1753
85;1711
87;1802
89;3121
91;3106
94;3249
105;3412
117;3676
120;3784
122;3876
124;3978
127;4012
129;4147
131;4286
134;4470
136;4533
138;4924
141;4459
143;4073
155;4844
157;4298
164;661
166;659
168;671
176;4266
178;4252
181;4257
183;4293
185;4293
188;4302
191;1756
195;4370
209;5012
211;4733
214;4413
216;4431
219;4202
221;3993
223;3852
231;285
247;2973
249;2843
251;2822
254;2775
256;2731
258;2714
261;2704
263;2685
265;2685
268;2665
270;2680
272;2668
275;2297
277;2304
280;2319
282;2354
284;2370
305;3034
307;3063
310;3155
312;3776
314;2735
319;3306
321;3201
324;2925
334;940
337;863
339;816
342;811
344;802
346;792
349;785
351;786
353;828
356;877
358;841
0;855
6;2546
8;2553
11;2580
13;2599
15;2678
28;1457
30;1533
37;3138
39;3238
42;1651
44;1577
46;1573
49;1570
51;1526
67;1723
70;1668
72;1682
74;1667
77;1652
